…
The new select() and rename() functions
---------------------------------------

In newer versions of `dplyr` you have even better version of `select()` and `rename()`. These functions pretty much explain themselves, but I'll include some examples.

**Code Snippet**: Convert all column names to snake case

``` r
# only select the factor columns
as_tibble(iris) %>% 
  select_if(is.factor)
```

    ## # A tibble: 150 x 1
    ##    Species
    ##    <fct>  
    ##  1 setosa 
    ##  2 setosa 
    ##  3 setosa 
    ##  4 setosa 
    ##  5 setosa 
    ##  6 setosa 
    ##  7 setosa 
    ##  8 setosa 
    ##  9 setosa 
    ## 10 setosa 
    ## # ... with 140 more rows

``` r
# rename everything to make column names tidy
as_tibble(iris) %>% 
  rename_all(~gsub('\\.', '_', tolower(.)))
```

    ## # A tibble: 150 x 5
    ##    sepal_length sepal_width petal_length petal_width species
    ##           <dbl>       <dbl>        <dbl>       <dbl> <fct>  
    ##  1         5.10        3.50         1.40       0.200 setosa 
    ##  2         4.90        3.00         1.40       0.200 setosa 
    ##  3         4.70        3.20         1.30       0.200 setosa 
    ##  4         4.60        3.10         1.50       0.200 setosa 
    ##  5         5.00        3.60         1.40       0.200 setosa 
    ##  6         5.40        3.90         1.70       0.400 setosa 
    ##  7         4.60        3.40         1.40       0.300 setosa 
    ##  8         5.00        3.40         1.50       0.200 setosa 
    ##  9         4.40        2.90         1.40       0.200 setosa 
    ## 10         4.90        3.10         1.50       0.100 setosa 
    ## # ... with 140 more rows

The everything() function for selecting columns
-----------------------------------------------

Also, don't forget about the handy function `everything()`. This literally selects every other column that you haven't already grabbed in your `select()` function. This is really handy when you want to re-order your columns or set things up for later reporting.

``` r
iris %>% 
  select(Species, everything()) %>%
  as_tibble()
```

    ## # A tibble: 150 x 5
    ##    Species Sepal.Length Sepal.Width Petal.Length Petal.Width
    ##    <fct>          <dbl>       <dbl>        <dbl>       <dbl>
    ##  1 setosa          5.10        3.50         1.40       0.200
    ##  2 setosa          4.90        3.00         1.40       0.200
    ##  3 setosa          4.70        3.20         1.30       0.200
    ##  4 setosa          4.60        3.10         1.50       0.200
    ##  5 setosa          5.00        3.60         1.40       0.200
    ##  6 setosa          5.40        3.90         1.70       0.400
    ##  7 setosa          4.60        3.40         1.40       0.300
    ##  8 setosa          5.00        3.40         1.50       0.200
    ##  9 setosa          4.40        2.90         1.40       0.200
    ## 10 setosa          4.90        3.10         1.50       0.100
    ## # ... with 140 more rows
…
The tidyverse, **purrr** way would be:

``` r
map_df(1:5, ~as_tibble(mutate(iris, dat_numb=.)))
```

    ## # A tibble: 750 x 6
    ##    Sepal.Length Sepal.Width Petal.Length Petal.Width Species dat_numb
    ##           <dbl>       <dbl>        <dbl>       <dbl> <fct>      <int>
    ##  1         5.10        3.50         1.40       0.200 setosa         1
    ##  2         4.90        3.00         1.40       0.200 setosa         1
    ##  3         4.70        3.20         1.30       0.200 setosa         1
    ##  4         4.60        3.10         1.50       0.200 setosa         1
    ##  5         5.00        3.60         1.40       0.200 setosa         1
    ##  6         5.40        3.90         1.70       0.400 setosa         1
    ##  7         4.60        3.40         1.40       0.300 setosa         1
    ##  8         5.00        3.40         1.50       0.200 setosa         1
    ##  9         4.40        2.90         1.40       0.200 setosa         1
    ## 10         4.90        3.10         1.50       0.100 setosa         1
    ## # ... with 740 more rows
There are two reasons why this would be preferable: 1) It is shorter and 2) it's 10x slower to do it as a loop! The tradeoff is that you need to have a stronger grasp of how the function is operating.

Using the modify() function
---------------------------

The `map()` function is inherently useful for processing lists or creating a list output. If you have a `data.frame` and just want to modify it in place, then you might be more interested in the function called `modify()`. It will take in something, transform it in place, and then spit it back out.

**Code Snippet**: Convert all factors in a `data.frame` to characters.

``` r
as_tibble(iris) %>% 
  modify_if(is.factor, as.character)
```

    ## # A tibble: 150 x 5
    ##    Sepal.Length Sepal.Width Petal.Length Petal.Width Species
    ##           <dbl>       <dbl>        <dbl>       <dbl> <chr>  
    ##  1         5.10        3.50         1.40       0.200 setosa 
    ##  2         4.90        3.00         1.40       0.200 setosa 
    ##  3         4.70        3.20         1.30       0.200 setosa 
    ##  4         4.60        3.10         1.50       0.200 setosa 
    ##  5         5.00        3.60         1.40       0.200 setosa 
    ##  6         5.40        3.90         1.70       0.400 setosa 
    ##  7         4.60        3.40         1.40       0.300 setosa 
    ##  8         5.00        3.40         1.50       0.200 setosa 
    ##  9         4.40        2.90         1.40       0.200 setosa 
    ## 10         4.90        3.10         1.50       0.100 setosa 
    ## # ... with 140 more rows
…
Another cool feature of **lubridate** is the object type `interval`. You can create one using `%--%` and supplying two dates or timestamps. In the example below we'll create an interval and show that it can quickly produce the delay time.

``` r
our_flights <- flights %>% 
  select(year, month, day, dep_time, sched_dep_time, dep_delay) %>%
  mutate(dep_timestamp = ymd_hms(sprintf('%04d%02d%02d %04d00', year, month, day, dep_time)), 
         sched_dep_timestamp = dep_timestamp - minutes(dep_delay), 
         dep_delay_interval = sched_dep_timestamp %--% dep_timestamp) %>%
    select(dep_delay_interval, dep_delay)
our_flights
```

    ## # A tibble: 336,776 x 2
    ##    dep_delay_interval                               dep_delay
    ##    <S4: Interval>                                       <dbl>
    ##  1 2013-01-01 05:15:00 UTC--2013-01-01 05:17:00 UTC        2.
    ##  2 2013-01-01 05:29:00 UTC--2013-01-01 05:33:00 UTC        4.
    ##  3 2013-01-01 05:40:00 UTC--2013-01-01 05:42:00 UTC        2.
    ##  4 2013-01-01 05:45:00 UTC--2013-01-01 05:44:00 UTC       -1.
    ##  5 2013-01-01 06:00:00 UTC--2013-01-01 05:54:00 UTC       -6.
    ##  6 2013-01-01 05:58:00 UTC--2013-01-01 05:54:00 UTC       -4.
    ##  7 2013-01-01 06:00:00 UTC--2013-01-01 05:55:00 UTC       -5.
    ##  8 2013-01-01 06:00:00 UTC--2013-01-01 05:57:00 UTC       -3.
    ##  9 2013-01-01 06:00:00 UTC--2013-01-01 05:57:00 UTC       -3.
    ## 10 2013-01-01 06:00:00 UTC--2013-01-01 05:58:00 UTC       -2.
    ## # ... with 336,766 more rows

**Code Snippet**: Find the time in seconds between two timestamps

``` r
our_flights %>% 
  mutate(calculated_delay = as.duration(dep_delay_interval) / dminutes(1), 
         calc_delay_secs =  as.duration(dep_delay_interval) / dseconds(1))
```

    ## # A tibble: 336,776 x 4
    ##    dep_delay_interval                               dep_delay
    ##    <S4: Interval>                                       <dbl>
    ##  1 2013-01-01 05:15:00 UTC--2013-01-01 05:17:00 UTC        2.
    ##  2 2013-01-01 05:29:00 UTC--2013-01-01 05:33:00 UTC        4.
    ##  3 2013-01-01 05:40:00 UTC--2013-01-01 05:42:00 UTC        2.
    ##  4 2013-01-01 05:45:00 UTC--2013-01-01 05:44:00 UTC       -1.
    ##  5 2013-01-01 06:00:00 UTC--2013-01-01 05:54:00 UTC       -6.
    ##  6 2013-01-01 05:58:00 UTC--2013-01-01 05:54:00 UTC       -4.
    ##  7 2013-01-01 06:00:00 UTC--2013-01-01 05:55:00 UTC       -5.
    ##  8 2013-01-01 06:00:00 UTC--2013-01-01 05:57:00 UTC       -3.
    ##  9 2013-01-01 06:00:00 UTC--2013-01-01 05:57:00 UTC       -3.
    ## 10 2013-01-01 06:00:00 UTC--2013-01-01 05:58:00 UTC       -2.
    ## # ... with 336,766 more rows, and 2 more variables:
    ## #   calculated_delay <dbl>, calc_delay_secs <dbl>
…
