…
Now that we know The Corner location has ID `1AWPRVVVFWGQF` we can use it to pull all the recent transactions.

``` r
response <- GET(paste0('https://connect.squareup.com/v2/locations/1AWPRVVVFWGQF/transactions',
                       '?begin_time=2018-10-05T00:00:00Z&end_time=2018-10-06T00:00:00Z&sort_order=DESC'),
                add_headers(Authorization = sprintf("Bearer %s", "sq0atp-PQdK9iw65pOwQgTQXtQt6")))

all_transactions <- content(response, as='parsed')$transactions %>%
  map_df(~as_tibble(modify_if(., ~(length(.x) > 1 | is.list(.x)), list)))

all_transactions
```

    ## # A tibble: 50 x 6
    ##    id          location_id  created_at    tenders product client_id       
    ##    <chr>       <chr>        <chr>         <list>  <chr>   <chr>           
    ##  1 pjGTWWz7Jo… 1AWPRVVVFWG… 2018-10-05T2… <list … REGIST… 2A0DA755-6063-4…
    ##  2 T6Vi0JMrwG… 1AWPRVVVFWG… 2018-10-05T2… <list … REGIST… E9A6E294-EC46-4…
    ##  3 51JYnnwusU… 1AWPRVVVFWG… 2018-10-05T2… <list … REGIST… 6E9F2BA9-4224-4…
    ##  4 7owdwcBf9E… 1AWPRVVVFWG… 2018-10-05T2… <list … REGIST… E311E20D-1583-4…
    ##  5 XEhYF31ZeL… 1AWPRVVVFWG… 2018-10-05T2… <list … REGIST… 489B4BBB-3788-4…
    ##  6 TYaBO9W8Oy… 1AWPRVVVFWG… 2018-10-05T2… <list … REGIST… D7D391F1-1FC4-4…
    ##  7 ZdvZrM5Pv8… 1AWPRVVVFWG… 2018-10-05T2… <list … REGIST… 7DAA3556-30F4-4…
    ##  8 FLdYeuAlVL… 1AWPRVVVFWG… 2018-10-05T2… <list … REGIST… 9FFBC80D-666E-4…
    ##  9 RnQGvM2NO8… 1AWPRVVVFWG… 2018-10-05T2… <list … REGIST… B67B97C6-8BBA-4…
    ## 10 niU0z6Cl1Y… 1AWPRVVVFWG… 2018-10-05T2… <list … REGIST… 0FC3F2D8-025F-4…
    ## # ... with 40 more rows
…
``` r
library(squareupr)
sq_auth(Sys.getenv('SQUARE_PAT'))
```

Now that the pacakge is loaded you can pull transaction data is like this:

``` r
our_locations <- sq_list_locations()
yesterdays_transactions <- sq_list_transactions("The Corner (C'ville)")
yesterdays_transactions
```

    ## # A tibble: 143 x 6
    ##    id          location_id  created_at    tenders product client_id       
    ##    <chr>       <chr>        <chr>         <list>  <chr>   <chr>           
    ##  1 dxsT7eIm8h… 1AWPRVVVFWG… 2018-10-18T2… <list … REGIST… 2F945CEC-D109-4…
    ##  2 RdhHymtIx8… 1AWPRVVVFWG… 2018-10-18T2… <list … REGIST… 934FBFDD-68A5-4…
    ##  3 X2aMXj9pzG… 1AWPRVVVFWG… 2018-10-18T2… <list … REGIST… 5434D236-7DE4-4…
    ##  4 thCALBXhU9… 1AWPRVVVFWG… 2018-10-18T2… <list … REGIST… 580647FC-4B1D-4…
    ##  5 d3zXEM3GvF… 1AWPRVVVFWG… 2018-10-18T2… <list … REGIST… 0E8859D9-0FE0-4…
    ##  6 ZJ7iUrgCYh… 1AWPRVVVFWG… 2018-10-18T2… <list … REGIST… 2890FFC8-AF89-4…
    ##  7 dFAov2DeUe… 1AWPRVVVFWG… 2018-10-18T2… <list … REGIST… E7B4FD95-9699-4…
    ##  8 NtUupF1Ssu… 1AWPRVVVFWG… 2018-10-18T2… <list … REGIST… 9007A815-4A99-4…
    ##  9 P2gY0V0z31… 1AWPRVVVFWG… 2018-10-18T2… <list … REGIST… 96076647-C96D-4…
    ## 10 pLSXoxTtyY… 1AWPRVVVFWG… 2018-10-18T2… <list … REGIST… CBC2C31B-502A-4…
    ## # ... with 133 more rows
…
``` r
created_start <- format(Sys.Date()-90, '%Y-%m-%dT00:00:00-00:00')
created_end <- format(Sys.Date(), '%Y-%m-%dT00:00:00-00:00')
our_customers <- sq_search_customers(query = list(filter=
                                                    list(created_at=
                                                           list(start_at=created_start,
                                                                end_at=created_end))))
our_customers$given_name <- "{HIDDEN}"
our_customers$family_name <- "{HIDDEN}"
our_customers %>% select(id, created_at, updated_at, 
                         given_name, family_name, preferences, groups)
```

    ## # A tibble: 7,978 x 7
    ##    id     created_at  updated_at given_name family_name preferences groups
    ##    <chr>  <chr>       <chr>      <chr>      <chr>       <list>      <list>
    ##  1 BCKGB… 2018-08-14… 2018-08-3… {HIDDEN}   {HIDDEN}    <list [1]>  <list…
    ##  2 X8DZM… 2018-10-14… 2018-10-1… {HIDDEN}   {HIDDEN}    <list [1]>  <list…
    ##  3 KBZVT… 2018-08-31… 2018-08-3… {HIDDEN}   {HIDDEN}    <list [1]>  <list…
    ##  4 0M4VW… 2018-07-24… 2018-07-2… {HIDDEN}   {HIDDEN}    <list [1]>  <list…
    ##  5 E735V… 2018-09-10… 2018-09-1… {HIDDEN}   {HIDDEN}    <list [1]>  <list…
    ##  6 GAG2W… 2018-09-21… 2018-09-2… {HIDDEN}   {HIDDEN}    <list [1]>  <list…
    ##  7 VDZZ7… 2018-07-25… 2018-07-2… {HIDDEN}   {HIDDEN}    <list [1]>  <list…
    ##  8 RWTS7… 2018-09-03… 2018-09-0… {HIDDEN}   {HIDDEN}    <list [1]>  <list…
    ##  9 RFJP4… 2018-08-25… 2018-08-2… {HIDDEN}   {HIDDEN}    <list [1]>  <list…
    ## 10 T1HZ3… 2018-08-29… 2018-08-2… {HIDDEN}   {HIDDEN}    <list [1]>  <list…
    ## # ... with 7,968 more rows

And if you'd like to get the assigned groups there is a function called `sq_extract_cust_groups()` to do that. This is an example of having "helper" functions that continue to process down the API data into a tidy format so that we all can do analyses faster and easier.

``` r
sq_extract_cust_groups(our_customers)
```

    ## # A tibble: 12,110 x 3
    ##    id                      groups.id                  groups.name         
    ##    <chr>                   <chr>                      <chr>               
    ##  1 BCKGBSEV4555AZ0B09VXG7… CQ689YH4KCJMY.LOYALTY_ALL  Loyalty Enrollees   
    ##  2 BCKGBSEV4555AZ0B09VXG7… gv2:Y19WF036Z538AGJVA8Q2E… Instant Profile     
    ##  3 X8DZMWH9N12S6KZED6AZTH… CQ689YH4KCJMY.REACHABLE    Reachable           
    ##  4 X8DZMWH9N12S6KZED6AZTH… gv2:Y19WF036Z538AGJVA8Q2E… Instant Profile     
    ##  5 KBZVT7KPFD1TMN0D1NDAF4… CQ689YH4KCJMY.LOYAL        Regulars            
    ##  6 KBZVT7KPFD1TMN0D1NDAF4… CQ689YH4KCJMY.LOYALTY_ALL  Loyalty Enrollees   
    ##  7 KBZVT7KPFD1TMN0D1NDAF4… gv2:FZT6PS1Y152K3BY4DD1HX… Experiment Group Co…
    ##  8 KBZVT7KPFD1TMN0D1NDAF4… gv2:Y19WF036Z538AGJVA8Q2E… Instant Profile     
    ##  9 0M4VWF9NT9532R8E103Z1F… CQ689YH4KCJMY.REACHABLE    Reachable           
    ## 10 0M4VWF9NT9532R8E103Z1F… gv2:Y19WF036Z538AGJVA8Q2E… Instant Profile     
    ## # ... with 12,100 more rows
…
